{
  "name": "Account",
  "plural": "accounts",
  "base": "User",
  "idInjection": true,
  "properties": {
    "firstName": {
      "type": "string"
    },
    "lastName": {
      "type": "string"
    },
    "type": {
      "type": "string"
    }
  },
  "validations": [],
  "relations": {
    "rewards": {
      "type": "hasMany",
      "model": "Reward",
      "foreignKey": "",
      "through": "AccountReward"
    }
  },
  "acls": [
    {
      "principalType": "ROLE",
      "principalId": "$admin",
      "permission": "ALLOW",
      "property": "find"
    },
    {
      "principalType": "ROLE",
      "principalId": "$admin",
      "permission": "ALLOW",
      "property": "findOne"
    },
    {
      "principalType": "ROLE",
      "principalId": "$admin",
      "permission": "ALLOW",
      "property": "findByid"
    },
    {
      "principalType": "ROLE",
      "principalId": "$admin",
      "permission": "ALLOW",
      "property": "updateAttributes"
    }
  ],
  "methods": []
}
