{
  "name": "AccountReward",
  "plural": "accountRewards",
  "base": "BaseModel",
  "idInjection": true,
  "properties": {
    "type": {
      "type": "string"
    }
  },
  "validations": [],
  "relations": {
    "account": {
      "type": "belongsTo",
      "model": "Account",
      "foreignKey": ""
    },
    "reward": {
      "type": "belongsTo",
      "model": "Reward",
      "foreignKey": ""
    }
  },
  "acls": [],
  "methods": []
}
