{
  "_meta": {
    "sources": [
      "loopback/common/models",
      "loopback/server/models",
      "../common/models",
      "./models"
    ]
  },
  "User": {
    "dataSource": "db",
    "public": false
  },
  "AccessToken": {
    "dataSource": "db",
    "public": false
  },
  "ACL": {
    "dataSource": "db",
    "public": false
  },
  "RoleMapping": {
    "dataSource": "db",
    "public": false
  },
  "Role": {
    "dataSource": "db",
    "public": false
  },
  "Account": {
    "dataSource": "db",
    "public": true
  },
  "BaseModel": {
    "dataSource": "db",
    "public": false
  },
  "Reward": {
    "dataSource": "db",
    "public": true
  },
  "Template": {
    "dataSource": "db",
    "public": true
  },
  "CoreValue": {
    "dataSource": "db",
    "public": true
  },
  "Competence": {
    "dataSource": "db",
    "public": true
  },
  "AccountReward": {
    "dataSource": "db",
    "public": true
  }
}
